IS415-GAA - Take-home Exercise 2: Application of Spatial and Spatio-temporal Analysis Methods to Discover the Distribution of Dengue Fever in Tainan City, Taiwan
…
HCSA <- wm_idw %>% 
  mutate(local_Gi = local_gstar_perm(
    Cases_per_village, nb, wt, nsim = 99),
         .before = 1) %>%
  unnest(local_Gi)
HCSA

Simple feature collection with 289 features and 18 fields
Geometry type: POLYGON
Dimension:     XY
Bounding box:  xmin: 120.0627 ymin: 22.89401 xmax: 120.2925 ymax: 23.09144
Geodetic CRS:  TWD97
# A tibble: 289 × 19
   gi_star    e_gi    var_gi p_value  p_sim p_folded_sim skewness kurtosis nb   
     <dbl>   <dbl>     <dbl>   <dbl>  <dbl>        <dbl>    <dbl>    <dbl> <nb> 
 1  -1.97  0.00269   1.96e-6  -1.74  0.0815         0.04     0.02   0.847  <int>
 2  -1.06  0.00286   1.27e-6  -0.715 0.475          0.54     0.27   0.768  <int>
 3  -0.403 0.00345   6.67e-7  -0.520 0.603          0.76     0.38   0.451  <int>
 4  -0.505 0.00312   1.29e-6  -0.247 0.805          0.9      0.45   0.714  <int>
 5  -2.10  0.00299   1.63e-6  -2.02  0.0432         0.02     0.01   0.625  <int>
 6  -2.89  0.00299   1.26e-6  -2.53  0.0115         0.02     0.01   0.715  <int>
 7  -1.18  0.00326   1.68e-6  -1.05  0.294          0.28     0.14   0.408  <int>
 8  -1.18  0.00313   1.21e-6  -1.12  0.262          0.26     0.13   0.414  <int>
 9  -0.401 0.00329   6.36e-7  -0.249 0.803          0.9      0.45   0.0594 <int>
10   1.12  0.00349   1.04e-6   1.32  0.187          0.28     0.14   0.442  <int>
# ℹ 279 more rows
# ℹ 10 more variables: wts <list>, VILLCODE <chr>, TOWNNAME <chr>,
#   VILLNAME.x <chr>, VILLENG <chr>, TOWNID <chr>, TOWNCODE <chr>,
#   VILLNAME.y <chr>, Cases_per_village <dbl>, geometry <POLYGON [°]>
…
